200
5
363933
0
0
41 43 43 43 40
1
0
44 43 45 48 46
2
0
62 66 59 60 59
3
0
47 43 43 46 50
4
0
54 51 53 56 51
5
0
59 63 62 64 64
6
0
54 62 54 57 53
7
0
33 29 32 30 29
8
0
60 63 63 61 62
9
0
53 60 56 55 55
10
0
54 53 52 50 53
11
0
41 40 40 40 39
12
0
47 44 46 43 44
13
0
48 48 50 48 51
14
0
49 49 46 51 48
15
0
62 64 62 64 63
16
0
59 66 59 63 65
17
0
49 53 48 53 51
18
0
48 49 47 50 46
19
0
41 39 38 40 42
20
0
52 51 53 53 54
21
0
44 48 44 45 44
22
0
84 85 79 78 80
23
0
48 46 47 49 47
24
0
59 61 58 54 55
25
0
49 52 55 48 52
26
0
65 61 62 67 64
27
0
46 52 48 49 52
28
0
53 58 60 58 58
29
0
50 44 45 47 44
30
0
36 37 35 32 35
31
0
34 34 33 36 37
32
0
39 42 41 44 43
33
0
48 51 51 48 52
34
0
41 44 42 40 39
35
0
68 63 62 65 61
36
0
43 40 39 43 41
37
0
46 43 48 45 47
38
0
43 39 43 41 42
39
0
56 56 54 59 54
40
0
40 44 43 43 40
41
0
48 49 50 45 50
42
0
44 45 44 42 43
43
0
49 46 44 48 50
44
0
57 53 57 59 58
45
0
47 48 45 49 48
46
0
45 45 45 43 44
47
0
54 58 60 56 60
48
0
42 43 43 43 41
49
0
60 59 66 62 58
50
0
39 41 41 41 37
51
0
36 40 38 34 37
52
0
44 45 42 42 40
53
0
53 55 53 50 56
54
0
38 39 34 37 38
55
0
62 62 62 58 57
56
0
35 35 35 34 35
57
0
57 59 56 58 61
58
0
59 59 60 58 58
59
0
27 27 27 26 28
60
0
61 62 64 59 66
61
0
38 35 42 38 37
62
0
38 41 38 41 47
63
0
55 54 58 55 54
64
0
37 33 35 32 35
65
0
49 44 44 41 46
66
0
60 59 61 58 59
67
0
25 23 23 22 25
68
0
47 46 45 49 42
69
0
65 58 61 61 59
70
0
60 60 66 64 65
71
0
28 29 26 25 25
72
0
44 48 49 44 47
73
0
41 39 39 38 42
74
0
47 47 47 44 48
75
0
39 40 38 37 41
76
0
47 49 46 45 47
77
0
64 61 61 65 61
78
0
34 40 37 36 40
79
0
63 63 64 65 62
80
0
60 55 54 58 55
81
0
48 49 47 48 51
82
0
56 51 54 53 52
83
0
58 57 60 58 65
84
0
43 43 41 44 44
85
0
46 48 55 50 51
86
0
62 63 67 62 63
87
0
48 48 50 51 50
88
0
65 66 63 66 61
89
0
56 53 52 50 53
90
0
60 64 65 68 63
91
0
36 33 32 36 35
92
0
58 65 62 58 60
93
0
73 74 74 79 73
94
0
52 54 51 55 50
95
0
63 61 63 59 62
96
0
51 50 50 51 49
97
0
43 45 48 48 52
98
0
37 42 41 42 39
99
0
58 58 61 59 56
100
0
56 53 48 52 52
101
0
43 39 43 40 43
102
0
61 54 59 56 58
103
0
46 44 45 43 46
104
0
50 51 46 53 49
105
0
40 48 42 44 48
106
0
44 45 45 45 42
107
0
56 62 63 64 58
108
0
41 38 41 41 41
109
0
45 43 45 46 48
110
0
61 61 57 58 59
111
0
51 48 46 49 49
112
0
61 61 67 60 59
113
0
74 68 75 64 73
114
0
39 39 37 41 40
115
0
77 77 82 76 85
116
0
31 31 33 31 35
117
0
47 46 49 51 50
118
0
54 53 57 59 54
119
0
51 51 52 51 53
120
0
59 59 57 54 59
121
0
51 54 54 55 55
122
0
62 66 66 66 62
123
0
44 43 47 41 43
124
0
44 41 46 44 48
125
0
61 58 59 59 59
126
0
59 61 59 60 55
127
0
67 62 66 69 63
128
0
56 51 52 59 54
129
0
48 44 48 47 43
130
0
56 55 58 57 60
131
0
55 57 55 57 58
132
0
50 50 53 57 55
133
0
59 66 63 61 65
134
0
49 44 49 47 47
135
0
56 59 57 53 58
136
0
41 40 36 41 39
137
0
73 71 72 68 68
138
0
54 52 50 56 52
139
0
48 52 52 50 49
140
0
44 42 45 41 40
141
0
48 52 48 53 57
142
0
52 54 51 55 58
143
0
48 47 51 51 52
144
0
47 45 44 42 45
145
0
41 42 48 43 44
146
0
60 59 61 61 62
147
0
47 48 47 45 44
148
0
47 45 44 47 45
149
0
63 59 64 63 62
150
0
52 53 53 47 52
151
0
76 78 83 76 77
152
0
49 45 46 46 46
153
0
39 40 41 40 40
154
0
50 51 54 50 53
155
0
44 49 51 50 50
156
0
52 56 59 52 59
157
0
42 48 47 44 45
158
0
50 49 51 48 49
159
0
52 47 52 51 49
160
0
51 46 47 54 51
161
0
56 57 55 61 56
162
0
50 50 52 50 49
163
0
58 59 62 62 57
164
0
47 48 49 49 47
165
0
52 55 54 52 51
166
0
34 34 33 32 32
167
0
57 50 57 53 51
168
0
56 54 56 56 57
169
0
69 73 67 65 71
170
0
52 50 47 51 48
171
0
43 41 40 41 41
172
0
47 46 47 47 45
173
0
43 41 44 39 44
174
0
54 52 55 53 51
175
0
70 73 67 66 68
176
0
55 56 50 50 53
177
0
47 48 46 46 49
178
0
54 52 50 57 54
179
0
37 35 39 35 36
180
0
37 37 38 39 42
181
0
38 33 40 33 39
182
0
50 52 49 48 48
183
0
52 49 47 53 49
184
0
62 60 65 64 65
185
0
63 64 64 64 64
186
0
39 45 42 44 45
187
0
48 51 49 48 52
188
0
54 51 47 48 49
189
0
57 58 55 56 57
190
0
56 50 52 56 53
191
0
40 41 40 38 41
192
0
53 53 56 57 53
193
0
52 53 49 51 51
194
0
42 43 44 42 47
195
0
39 39 42 43 40
196
0
48 54 49 48 49
197
0
48 51 49 48 49
198
0
56 52 58 56 52
199
0
55 64 63 63 61
