50
20
515864
0
0
55 69 53 56 53 63 68 43 40 52 51 48 54 48 37 54 44 55 27 43
1
0
36 61 66 41 57 71 52 43 49 67 42 64 43 65 24 54 50 65 46 57
2
0
38 40 39 41 48 32 61 55 30 43 28 51 26 57 51 41 51 46 28 77
3
0
45 60 61 59 71 41 39 33 46 38 71 49 55 59 53 35 52 42 40 42
4
0
33 55 62 60 54 49 54 43 60 59 52 40 44 49 57 60 37 26 54 45
5
0
37 59 42 65 50 55 46 49 39 43 38 48 54 49 64 39 51 48 49 59
6
0
39 35 55 41 38 55 35 55 38 26 52 36 36 52 38 38 56 34 47 49
7
0
27 29 61 54 37 54 45 31 54 58 58 57 46 36 55 51 37 67 45 40
8
0
28 59 47 60 51 42 51 39 47 41 50 51 37 38 42 39 47 45 64 58
9
0
53 68 39 40 35 54 40 58 36 55 50 53 40 56 56 54 45 61 53 57
10
0
44 67 45 39 50 35 48 44 61 47 54 44 38 35 45 47 68 61 28 55
11
0
49 45 61 58 47 55 39 31 49 55 62 54 38 42 45 52 50 40 54 57
12
0
47 32 59 44 38 59 51 63 45 51 36 29 65 37 46 41 66 39 77 73
13
0
50 58 60 54 54 51 54 70 58 54 71 52 37 50 38 45 37 57 52 58
14
0
45 40 41 59 49 46 61 37 42 52 42 46 32 44 55 44 58 36 52 69
15
0
43 60 43 55 53 54 54 34 68 51 52 48 57 55 40 71 59 45 55 44
16
0
37 73 38 51 49 66 39 68 64 48 37 51 54 50 46 50 57 78 42 34
17
0
49 46 50 38 42 48 47 59 65 34 49 46 50 37 32 64 54 44 55 57
18
0
53 48 47 35 42 58 51 47 58 44 39 36 61 55 45 56 50 59 57 56
19
0
85 70 40 60 47 47 51 56 44 41 62 55 71 59 56 50 46 53 61 54
20
0
37 50 49 44 42 55 53 43 49 46 73 48 42 70 51 40 49 48 45 42
21
0
51 51 47 55 67 50 58 46 43 57 57 67 44 62 68 50 51 38 49 44
22
0
34 54 49 42 49 44 50 36 59 56 70 58 35 51 67 68 44 40 37 65
23
0
45 51 52 54 33 42 48 47 35 55 53 45 57 57 48 45 43 50 48 66
24
0
48 70 36 60 50 42 58 49 49 72 44 76 47 58 55 45 50 68 57 63
25
0
35 42 60 35 45 48 47 50 55 40 60 42 61 56 51 61 52 54 50 60
26
0
45 33 52 73 52 66 25 52 34 40 53 45 54 60 55 41 86 44 37 47
27
0
70 61 38 40 51 66 43 49 38 50 57 56 66 61 56 39 50 52 54 49
28
0
53 45 58 74 46 51 36 55 56 42 46 39 40 57 50 29 50 62 66 43
29
0
48 61 51 41 53 46 55 41 60 48 49 48 61 47 47 62 49 45 57 64
30
0
37 60 64 64 27 56 40 44 41 53 58 54 40 51 57 74 67 39 52 62
31
0
58 38 51 40 42 49 48 50 54 35 37 49 50 48 58 52 42 37 57 30
32
0
50 48 65 61 53 36 57 67 23 46 53 47 38 64 61 53 53 46 59 55
33
0
42 56 66 50 46 43 43 37 50 54 58 51 34 66 50 52 67 37 54 44
34
0
38 58 53 50 56 40 43 41 55 47 46 70 51 53 54 46 48 31 47 59
35
0
65 58 44 55 55 44 78 48 43 28 38 58 45 70 81 46 64 57 50 77
36
0
68 45 50 34 73 52 47 31 57 66 72 44 52 60 51 53 55 34 64 25
37
0
50 30 44 47 60 60 50 46 49 43 68 57 47 48 37 50 36 34 36 41
38
0
39 73 51 60 59 40 38 30 47 66 54 44 64 51 42 45 60 36 36 56
39
0
49 39 44 71 47 62 48 48 53 51 53 55 81 52 47 40 65 41 52 48
40
0
51 35 60 37 58 68 45 38 61 52 50 51 53 45 41 58 55 52 40 65
41
0
39 43 64 48 63 49 49 42 60 47 45 50 60 68 57 59 39 53 38 39
42
0
63 42 58 45 58 52 49 38 44 56 48 61 54 51 41 69 26 50 35 70
43
0
66 60 35 74 64 49 50 53 51 48 45 60 54 44 42 49 56 64 54 35
44
0
39 49 40 37 47 51 67 47 49 65 45 57 50 37 46 40 57 51 44 32
45
0
40 61 64 52 44 50 55 50 45 45 54 51 63 54 38 63 44 37 48 38
46
0
47 64 34 42 72 38 55 30 50 67 49 52 52 44 43 61 48 60 70 50
47
0
62 41 43 39 37 44 62 64 70 41 44 58 52 52 58 43 55 62 50 57
48
0
46 35 57 46 40 50 48 54 27 54 51 56 40 65 55 63 29 60 64 65
49
0
40 47 51 46 34 49 72 48 57 53 53 39 40 57 64 59 42 75 47 71
