20
20
864156
0
0
37 63 53 38 41 55 34 63 61 56 59 25 46 59 68 62 42 58 47 67
1
0
38 60 50 37 39 53 34 63 62 57 60 26 42 67 68 75 40 59 48 62
2
0
36 62 51 37 36 52 32 63 64 53 57 26 43 63 65 68 38 60 47 59
3
0
38 62 52 36 40 49 33 59 63 54 55 23 43 60 69 67 42 60 45 67
4
0
38 63 51 34 37 50 30 65 63 55 61 24 43 61 67 68 37 65 46 67
5
0
33 62 52 38 41 50 33 56 62 53 58 27 44 66 69 69 40 56 48 65
6
0
34 60 46 41 40 56 31 58 57 56 53 26 46 61 68 66 38 57 44 69
7
0
36 55 50 36 39 50 35 65 65 50 60 27 46 64 68 68 41 57 45 66
8
0
39 65 51 37 39 51 37 59 60 52 57 26 50 61 66 66 40 58 45 70
9
0
36 61 51 35 39 53 35 60 61 57 54 26 49 59 69 71 41 58 46 64
10
0
38 66 54 37 42 51 34 60 63 57 55 27 42 59 70 71 39 62 52 60
11
0
38 60 52 35 41 54 35 58 67 55 55 23 46 64 68 69 38 60 46 62
12
0
37 61 54 36 37 54 35 62 62 54 53 23 41 62 64 68 37 54 48 66
13
0
37 65 53 35 38 53 33 60 63 60 56 25 43 62 66 73 43 58 46 67
14
0
34 60 52 35 40 50 35 63 59 49 53 24 41 58 63 69 44 58 50 64
15
0
35 58 50 35 40 51 35 58 59 55 52 25 41 61 67 69 41 63 43 69
16
0
37 65 51 35 41 54 36 59 61 54 52 24 43 62 67 69 39 57 44 58
17
0
35 62 53 37 37 48 31 60 56 54 54 23 43 61 66 71 36 58 41 63
18
0
36 63 55 35 40 53 33 62 56 56 56 26 42 60 61 69 39 59 48 68
19
0
34 63 48 37 36 53 36 63 60 59 56 25 45 57 64 72 40 56 48 64
