10
10
622854
0
0
57 57 36 52 43 57 47 77 35 41
1
0
58 60 32 51 39 59 48 72 36 39
2
0
59 58 31 55 41 54 50 72 38 41
3
0
58 57 34 50 38 55 53 76 33 41
4
0
61 56 33 51 36 54 49 77 33 39
5
0
60 58 37 51 41 54 52 76 36 42
6
0
56 57 36 53 37 56 51 67 35 40
7
0
57 58 35 55 39 57 45 73 36 37
8
0
61 60 33 56 39 56 49 76 37 39
9
0
62 58 32 49 42 51 46 73 36 39
