50
10
692467
0
0
53 60 25 46 51 36 34 41 70 54
1
0
46 66 25 44 51 37 38 38 66 57
2
0
52 58 26 44 52 33 40 37 71 59
3
0
52 57 28 48 53 37 38 39 70 57
4
0
49 62 26 45 50 34 37 39 69 53
5
0
48 62 26 45 49 37 35 42 66 58
6
0
51 61 26 45 47 38 39 39 70 61
7
0
52 67 25 46 51 39 36 40 68 57
8
0
53 59 25 45 51 38 36 42 75 59
9
0
52 58 24 46 51 34 36 36 71 52
10
0
51 60 26 45 51 37 38 39 70 54
11
0
54 58 24 41 47 36 34 41 68 56
12
0
52 62 24 44 55 36 38 40 65 59
13
0
55 62 26 48 51 36 35 38 69 57
14
0
55 63 24 39 47 41 37 44 66 55
15
0
56 65 26 42 50 38 35 41 70 58
16
0
49 61 26 43 47 35 34 42 76 56
17
0
51 61 26 43 52 35 39 40 70 56
18
0
50 59 24 44 53 38 37 43 78 58
19
0
53 57 26 44 50 39 37 40 68 59
20
0
53 61 26 46 49 37 38 39 74 55
21
0
54 60 26 42 48 36 36 38 73 60
22
0
49 63 23 44 48 37 38 38 72 56
23
0
54 59 26 45 55 35 42 38 70 55
24
0
52 61 27 44 48 37 37 41 68 56
25
0
49 59 25 45 48 37 38 42 65 57
26
0
51 58 24 46 53 35 35 40 73 58
27
0
55 61 24 47 51 39 39 40 72 56
28
0
52 57 24 47 56 39 35 39 73 53
29
0
53 60 26 46 52 36 36 42 74 56
30
0
53 58 27 45 49 36 34 37 64 53
31
0
53 60 26 44 48 38 39 44 69 58
32
0
50 64 28 43 49 40 38 38 75 54
33
0
58 56 25 45 53 36 37 38 70 57
34
0
52 63 24 45 48 36 39 40 73 57
35
0
50 58 25 41 55 41 38 38 71 57
36
0
49 62 24 44 47 39 36 40 70 54
37
0
50 56 28 43 52 38 38 39 71 56
38
0
55 58 25 41 52 37 35 41 72 55
39
0
54 59 27 44 51 36 39 36 71 57
40
0
51 56 26 43 49 33 40 40 69 53
41
0
55 60 22 45 50 37 39 42 73 52
42
0
53 60 23 42 51 40 37 40 73 57
43
0
48 58 23 43 49 39 38 42 71 53
44
0
49 58 25 44 56 36 37 46 71 55
45
0
56 57 25 45 47 36 40 41 72 53
46
0
49 60 25 45 51 38 38 40 72 58
47
0
52 61 26 43 49 37 39 41 70 57
48
0
54 61 27 43 49 37 37 40 70 61
49
0
54 63 25 43 50 39 36 40 72 57
