20
10
448738
0
0
27 174 5 132 2 5 6 0 24 17
1
0
7 13 42 10 42 150 16 42 1 50
2
0
10 69 21 73 23 8 51 89 102 32
3
0
23 6 6 21 4 41 97 7 43 49
4
0
43 76 41 26 42 20 45 44 13 18
5
0
83 64 36 4 113 107 23 82 58 7
6
0
22 94 18 46 697 6 26 43 114 85
7
0
92 23 10 19 101 83 24 9 10 13
8
0
120 73 349 21 14 47 1 41 4 2
9
0
21 135 166 55 99 23 63 14 66 13
10
0
130 54 188 202 7 37 2 37 21 8
11
0
3 110 19 29 13 40 3 70 71 43
12
0
26 25 10 3 9 119 61 35 89 16
13
0
20 53 16 58 118 25 119 38 20 5
14
0
15 5 76 10 44 41 8 9 38 1
15
0
72 59 171 98 11 17 37 70 9 58
16
0
45 71 2 79 28 37 58 3 7 59
17
0
32 55 158 56 70 49 112 12 11 52
18
0
39 7 160 86 25 13 1 11 22 40
19
0
243 66 126 18 31 92 29 44 20 44
