50
10
861184
0
0
27 18 28 16 20 21 23 17 11 18
1
0
186 101 111 82 114 84 147 127 119 103
2
0
23 23 29 21 26 28 20 24 33 24
3
0
60 71 88 77 84 76 70 64 64 84
4
0
15 41 26 12 29 25 21 17 23 19
5
0
7 5 6 3 5 4 4 9 5 6
6
0
16 12 20 30 21 18 7 14 14 17
7
0
6 3 3 5 3 4 3 5 5 9
8
0
4 13 4 4 6 6 5 12 10 8
9
0
47 39 48 40 49 46 32 41 42 34
10
0
26 52 29 50 49 47 42 39 35 44
11
0
31 33 27 30 41 35 24 25 30 37
12
0
17 18 21 30 17 13 21 22 14 13
13
0
88 92 89 97 130 133 65 97 105 92
14
0
6 13 9 8 7 5 13 13 7 10
15
0
30 41 45 35 30 43 37 42 34 19
16
0
70 90 89 68 91 85 64 66 81 74
17
0
64 86 56 82 51 86 71 59 64 52
18
0
16 17 12 7 8 7 9 15 12 12
19
0
59 50 48 33 51 30 60 37 53 42
20
0
50 61 58 55 80 53 53 72 50 45
21
0
79 44 49 68 50 46 85 48 69 47
22
0
4 10 4 4 5 7 3 8 2 4
23
0
4 10 9 15 10 8 10 10 12 8
24
0
14 16 22 13 10 19 14 12 16 12
25
0
125 120 134 120 144 131 103 146 89 116
26
0
27 39 29 29 41 29 37 30 24 25
27
0
6 10 11 19 11 8 9 9 12 7
28
0
62 76 70 127 52 81 64 73 71 48
29
0
41 24 32 33 27 22 33 25 34 36
30
0
19 17 17 12 21 14 11 8 10 16
31
0
38 51 44 53 63 51 68 66 45 53
32
0
74 68 47 83 73 63 89 74 55 61
33
0
31 39 41 33 39 29 28 25 22 39
34
0
13 22 14 20 14 20 25 12 17 22
35
0
29 45 32 31 34 36 26 40 30 20
36
0
59 67 43 47 30 46 44 46 40 38
37
0
19 13 27 21 22 18 25 15 25 21
38
0
48 57 43 58 45 27 42 37 34 34
39
0
36 36 44 28 45 41 33 44 45 52
40
0
29 64 41 37 59 37 59 51 37 52
41
0
9 9 9 12 17 9 10 12 12 12
42
0
92 113 96 87 86 90 110 103 79 99
43
0
34 47 34 60 55 44 71 49 53 44
44
0
102 105 104 94 106 105 115 106 114 118
45
0
17 27 16 25 14 23 21 10 23 17
46
0
25 9 14 14 17 24 17 21 17 20
47
0
15 21 29 18 15 15 22 20 11 18
48
0
54 72 105 71 88 90 73 73 72 54
49
0
62 44 47 60 60 64 66 50 60 48
