20
5
1369363414
0
566
15 28 77 1 45 
1
434
64 4 36 59 73 
2
786
64 43 57 95 59 
3
686
48 93 15 49 63 
4
827
9 1 81 90 54 
5
620
91 81 82 78 98 
6
946
27 77 98 3 39 
7
1133
34 69 97 69 75 
8
324
42 52 12 99 33 
9
834
3 28 35 41 8 
10
1057
11 28 84 73 86 
11
361
54 77 70 28 41 
12
985
27 42 27 99 41 
13
679
30 53 37 13 22 
14
1028
9 46 59 59 43 
15
732
15 49 42 47 34 
16
366
88 15 57 8 80 
17
905
55 43 16 92 16 
18
623
50 65 11 87 37 
19
812
57 41 34 62 94 
5
7
6
1
8
7
1
5
10
10
6
3
5
10
3
5
5
6
5
7
