100
5
10005019
0
0
28 18 46 33 39 
1
0
34 16 46 32 48 
2
0
31 18 45 29 44 
3
0
31 18 52 31 49 
4
0
36 21 50 32 40 
5
0
31 20 48 31 41 
6
0
32 24 53 29 48 
7
0
32 16 54 27 43 
8
0
29 21 51 29 44 
9
0
34 17 45 26 40 
10
0
35 25 48 28 43 
11
0
28 20 46 27 42 
12
0
34 15 45 29 46 
13
0
35 18 44 29 49 
14
0
33 16 53 29 49 
15
0
31 25 50 28 49 
16
0
33 24 53 33 42 
17
0
37 18 45 29 44 
18
0
37 15 54 24 47 
19
0
29 22 52 27 47 
20
0
28 16 54 27 47 
21
0
33 26 53 28 39 
22
0
36 24 50 26 46 
23
0
36 21 51 34 44 
24
0
32 18 48 24 48 
25
0
33 17 44 27 44 
26
0
35 15 49 31 47 
27
0
33 16 49 33 41 
28
0
30 20 52 29 40 
29
0
30 21 45 26 47 
30
0
37 16 50 31 44 
31
0
30 24 51 31 44 
32
0
31 20 50 26 41 
33
0
30 19 50 33 50 
34
0
35 21 53 32 46 
35
0
37 20 52 26 44 
36
0
31 18 50 25 40 
37
0
37 21 48 26 45 
38
0
31 24 50 25 41 
39
0
36 20 47 29 46 
40
0
31 22 52 31 48 
41
0
28 17 47 33 47 
42
0
32 17 45 30 49 
43
0
35 21 44 33 47 
44
0
35 21 51 32 45 
45
0
31 15 45 30 42 
46
0
34 20 45 31 42 
47
0
32 19 48 26 42 
48
0
32 18 48 32 42 
49
0
36 17 50 31 41 
50
0
32 22 48 33 48 
51
0
35 21 52 31 41 
52
0
29 16 51 25 49 
53
0
38 24 52 25 43 
54
0
35 21 50 29 44 
55
0
35 16 43 24 48 
56
0
30 18 52 23 39 
57
0
31 21 45 31 48 
58
0
30 20 52 29 44 
59
0
32 18 50 34 47 
60
0
29 22 47 24 41 
61
0
37 20 44 32 46 
62
0
34 17 45 27 47 
63
0
28 20 44 30 45 
64
0
29 23 52 32 48 
65
0
37 16 52 29 42 
66
0
31 18 53 33 46 
67
0
31 23 50 27 41 
68
0
37 23 47 27 48 
69
0
38 24 49 32 42 
70
0
33 25 50 33 45 
71
0
35 21 52 30 45 
72
0
37 18 54 29 39 
73
0
36 25 47 34 42 
74
0
31 23 46 27 45 
75
0
31 24 49 31 42 
76
0
30 19 54 32 42 
77
0
35 15 46 24 46 
78
0
29 23 44 26 40 
79
0
36 24 45 24 49 
80
0
38 26 53 28 46 
81
0
35 16 47 29 46 
82
0
32 17 45 30 42 
83
0
28 17 46 33 44 
84
0
37 21 45 23 47 
85
0
30 23 49 28 46 
86
0
37 18 48 33 46 
87
0
28 15 51 23 39 
88
0
37 21 48 25 40 
89
0
30 17 48 31 39 
90
0
36 23 46 23 47 
91
0
30 17 47 28 40 
92
0
29 25 53 25 47 
93
0
34 24 51 29 41 
94
0
34 20 44 25 47 
95
0
38 23 47 25 40 
96
0
38 17 44 28 48 
97
0
32 15 50 33 42 
98
0
28 16 45 24 49 
99
0
33 24 52 29 44 
