20
20
2020004
0
0
81 34 54 86 26 18 84 75 34 17 20 40 84 47 8 27 99 67 51 69 
1
0
85 62 51 27 56 95 16 65 15 15 24 66 40 38 82 64 51 29 21 67 
2
0
77 18 90 83 82 14 21 43 18 30 85 77 7 96 91 38 11 53 75 84 
3
0
11 44 80 81 46 67 5 75 49 2 92 88 6 30 25 94 9 81 92 76 
4
0
95 50 13 2 68 96 22 23 98 64 14 94 74 86 55 37 62 88 12 12 
5
0
43 24 77 88 23 1 42 36 8 60 88 14 14 63 98 99 61 48 7 94 
6
0
31 45 66 96 46 78 30 51 48 30 15 38 64 26 52 51 75 47 97 95 
7
0
44 92 93 81 14 71 78 59 6 84 9 95 66 39 84 59 97 27 96 43 
8
0
46 37 23 58 91 81 46 35 9 70 94 39 82 14 82 37 91 67 94 39 
9
0
39 80 78 43 43 83 14 35 97 31 20 14 21 50 6 8 27 87 62 1 
10
0
73 72 52 34 59 56 68 52 36 79 92 46 98 34 84 90 41 61 58 98 
11
0
15 9 8 67 33 15 16 3 25 89 26 29 58 81 61 13 56 75 5 86 
12
0
32 10 31 35 21 59 42 73 11 75 85 75 17 80 69 14 14 8 95 61 
13
0
80 51 91 88 93 28 8 34 72 47 24 46 59 85 71 95 99 62 17 24 
14
0
71 35 69 85 80 7 25 62 68 95 23 62 1 11 31 42 28 34 44 48 
15
0
51 45 21 42 14 39 73 22 30 71 38 21 58 91 91 42 61 26 73 49 
16
0
44 44 6 27 80 4 88 7 88 6 27 47 8 7 38 99 8 45 95 79 
17
0
37 21 29 84 85 91 26 17 46 70 48 11 93 84 76 82 99 84 42 6 
18
0
15 48 1 85 96 99 33 22 53 1 8 73 82 52 54 79 34 71 98 1 
19
0
59 58 19 27 78 59 22 66 53 3 73 17 50 2 20 35 3 67 40 17 
