20
20
2020101
0
0
81 83 50 62 56 30 67 99 38 8 4 35 35 24 88 80 88 83 94 87 
1
0
62 25 81 21 72 35 79 33 36 3 35 58 5 76 92 68 52 88 66 15 
2
0
7 31 99 91 36 99 50 37 94 77 61 72 42 14 53 32 79 38 36 95 
3
0
59 69 87 76 24 97 24 12 21 39 50 21 31 23 62 39 74 48 29 88 
4
0
63 58 33 71 90 88 82 61 73 84 71 15 17 96 23 84 74 79 10 72 
5
0
67 35 82 79 29 46 27 1 54 48 95 56 66 69 50 3 88 13 10 36 
6
0
87 37 92 78 87 61 27 26 85 22 28 15 55 99 75 53 89 16 83 4 
7
0
30 35 75 61 50 92 6 39 83 1 98 11 56 11 47 51 3 46 7 18 
8
0
35 71 67 51 86 66 1 80 99 96 98 74 98 99 12 26 18 86 87 21 
9
0
6 82 12 58 62 19 93 73 77 81 35 5 99 21 21 47 6 53 49 62 
10
0
93 2 86 90 21 23 72 53 9 50 86 45 5 70 20 87 51 77 90 93 
11
0
53 3 42 93 4 73 40 26 16 96 29 62 67 72 91 16 47 90 26 29 
12
0
92 55 37 22 26 39 1 95 5 99 54 52 18 62 52 86 26 6 22 94 
13
0
16 12 58 53 72 68 17 72 46 77 2 95 14 96 66 99 34 37 31 85 
14
0
90 75 54 24 14 68 67 58 58 28 55 31 96 25 96 40 44 4 4 21 
15
0
89 29 36 48 20 7 34 25 74 54 79 18 10 46 77 61 24 84 30 78 
16
0
54 80 25 55 77 53 36 36 43 34 93 37 28 42 66 87 17 45 62 28 
17
0
12 58 36 70 48 55 57 34 57 8 2 37 94 88 34 50 58 20 77 82 
18
0
34 61 20 72 10 32 29 52 50 62 3 36 73 50 6 87 20 26 48 81 
19
0
8 2 6 97 8 24 24 56 70 2 58 9 63 39 30 79 65 39 31 10 
