50
20
5020101
0
0
29 20 23 12 77 18 24 72 52 93 63 62 97 11 77 84 57 44 67 40 
1
0
98 71 45 68 30 67 92 39 39 46 56 2 78 37 96 95 29 32 66 52 
2
0
4 67 12 38 11 23 25 77 28 79 70 64 34 48 22 14 34 46 21 69 
3
0
98 11 9 32 21 11 11 48 27 41 92 30 85 85 42 69 76 34 85 73 
4
0
34 48 81 61 71 73 82 5 8 44 18 97 76 64 45 58 6 27 79 25 
5
0
23 96 88 72 56 25 93 51 70 87 99 37 59 88 91 52 38 42 14 91 
6
0
72 40 79 83 50 97 69 65 88 13 38 95 79 23 7 35 18 79 23 52 
7
0
44 22 19 56 98 89 16 87 19 41 78 37 25 56 86 17 81 50 19 69 
8
0
57 50 19 59 76 37 57 76 50 94 60 31 52 98 23 70 74 19 68 16 
9
0
74 5 54 55 80 28 28 52 40 94 29 48 16 65 8 28 78 27 79 40 
10
0
17 89 51 66 78 7 5 7 50 13 9 67 44 89 11 95 54 90 32 99 
11
0
65 88 68 77 44 62 98 37 85 16 74 41 94 29 32 70 35 41 26 95 
12
0
96 80 93 45 51 54 90 55 17 53 82 5 15 43 71 88 79 48 33 90 
13
0
49 59 12 21 6 6 73 94 61 64 82 91 60 41 27 44 6 84 16 90 
14
0
80 6 55 28 76 53 57 89 73 41 75 70 65 3 27 97 34 80 56 88 
15
0
47 85 90 4 80 21 85 25 12 81 30 33 52 84 3 78 6 74 63 21 
16
0
69 31 10 9 91 53 65 80 19 27 15 62 80 63 62 17 65 94 39 94 
17
0
67 30 10 92 44 50 63 9 27 56 52 51 69 6 46 64 24 3 89 31 
18
0
29 26 23 33 72 39 40 31 3 42 80 71 17 89 23 36 18 16 91 92 
19
0
78 80 3 88 79 92 87 59 99 94 27 84 86 84 75 33 98 48 62 58 
20
0
76 19 68 68 70 70 2 89 14 34 28 21 90 83 2 67 92 83 12 98 
21
0
38 38 24 28 80 91 86 6 93 92 26 39 9 81 5 14 38 29 49 57 
22
0
24 62 30 93 92 38 61 22 89 6 61 53 30 66 25 93 96 43 18 71 
23
0
18 85 3 12 82 20 75 41 72 55 7 61 81 43 54 94 63 17 71 37 
24
0
26 42 69 28 11 19 39 77 77 27 21 88 4 19 93 97 56 42 72 63 
25
0
68 95 5 82 5 57 69 16 8 20 34 54 93 89 6 70 82 71 71 44 
26
0
4 41 17 52 34 88 49 52 66 17 87 76 41 61 63 1 8 25 80 59 
27
0
24 66 47 67 47 49 39 12 52 17 87 44 52 31 73 22 22 61 69 27 
28
0
78 51 73 1 98 95 93 83 1 42 97 91 10 61 39 16 3 59 4 78 
29
0
60 61 54 55 73 5 43 59 85 38 32 80 22 88 7 39 24 60 56 91 
30
0
51 46 71 51 45 31 78 96 42 11 11 6 47 44 16 55 47 45 28 18 
31
0
14 84 46 53 66 60 30 61 72 25 58 7 10 77 70 72 41 52 25 50 
32
0
54 46 19 53 44 4 7 18 66 16 85 27 90 71 79 92 8 66 28 45 
33
0
65 15 81 59 95 2 17 13 28 59 44 9 81 41 1 5 89 88 91 64 
34
0
41 30 78 2 61 96 11 51 39 94 72 71 91 55 72 42 73 96 45 45 
35
0
96 54 35 63 67 78 89 13 40 36 29 3 12 97 24 11 6 60 4 68 
36
0
51 42 46 33 32 57 31 27 43 31 85 78 43 22 97 62 80 6 32 64 
37
0
4 50 58 66 65 54 21 83 47 73 35 31 4 72 42 16 50 90 48 12 
38
0
77 50 16 74 60 44 23 37 17 62 12 56 51 13 78 35 3 59 26 55 
39
0
3 26 22 32 46 32 50 18 1 25 64 72 84 36 3 67 50 24 11 69 
40
0
16 84 82 49 71 35 29 96 46 26 51 63 68 94 80 15 89 66 17 17 
41
0
67 53 80 59 73 45 64 73 45 78 51 27 55 77 81 25 98 77 1 34 
42
0
20 99 78 21 76 52 50 97 25 30 73 89 40 74 23 94 79 57 8 7 
43
0
38 82 80 22 6 63 57 92 35 7 17 78 4 62 15 30 95 7 14 76 
44
0
5 88 90 87 35 54 26 81 85 72 1 72 32 18 52 46 18 32 68 32 
45
0
47 87 9 48 53 90 59 5 97 12 39 32 33 70 40 12 11 22 69 92 
46
0
8 9 58 69 51 60 17 58 63 15 72 81 62 53 94 98 89 60 14 42 
47
0
14 40 43 18 1 65 82 96 52 32 8 40 59 81 86 39 23 25 3 22 
48
0
58 90 3 58 79 96 13 5 58 11 89 48 97 21 42 27 13 67 34 98 
49
0
34 92 38 18 9 73 6 77 14 95 33 44 84 57 77 13 91 43 8 64 
