50
20
5020101
0
0
37 71 12 35 70 33 64 86 49 86 16 37 20 37 25 72 61 5 89 63 
1
0
27 65 20 37 70 32 68 84 51 87 17 47 21 46 31 77 60 8 83 58 
2
0
37 69 20 38 75 26 65 79 54 91 17 44 19 44 29 74 69 12 87 60 
3
0
30 74 19 35 72 25 62 82 47 92 16 40 23 38 27 74 68 6 84 56 
4
0
29 68 13 35 73 23 73 84 52 90 11 43 21 47 33 77 62 8 90 59 
5
0
34 66 13 35 73 29 72 88 53 94 10 42 16 46 24 71 69 5 90 57 
6
0
31 69 17 36 69 28 70 88 46 88 14 44 23 46 25 80 65 8 90 58 
7
0
32 64 16 37 70 23 68 81 47 91 17 46 24 46 27 80 64 11 91 55 
8
0
34 74 18 34 65 28 71 87 48 90 11 39 15 44 30 81 67 6 90 60 
9
0
28 74 21 31 72 24 69 79 45 95 11 41 17 42 35 78 59 10 82 62 
10
0
33 73 12 32 73 28 69 81 56 89 11 42 23 39 25 70 60 9 88 54 
11
0
37 70 17 29 74 28 66 85 47 95 15 43 14 47 31 72 58 10 85 57 
12
0
32 64 20 30 69 27 72 88 55 86 9 46 24 44 32 72 61 8 85 57 
13
0
35 73 12 39 72 32 62 79 55 91 10 42 18 40 29 74 63 9 85 59 
14
0
31 67 12 32 73 30 72 80 53 88 12 45 19 44 25 76 63 10 92 57 
15
0
34 67 13 38 72 32 69 82 54 87 18 41 15 47 26 78 59 13 87 59 
16
0
34 67 11 36 73 26 70 86 46 87 18 47 16 42 32 80 68 14 82 59 
17
0
29 73 18 32 74 24 66 80 52 87 19 45 19 46 33 71 66 10 85 53 
18
0
35 66 13 39 73 24 70 84 51 90 11 37 15 45 24 75 59 4 87 58 
19
0
35 68 14 30 65 29 67 79 45 89 9 37 24 42 32 71 67 13 85 59 
20
0
30 71 11 32 64 32 66 87 54 86 14 40 23 43 27 77 64 9 83 54 
21
0
29 73 18 38 68 28 72 84 50 88 17 38 24 48 35 72 58 6 84 56 
22
0
28 68 11 34 69 33 67 89 53 87 13 44 15 39 29 74 64 10 82 52 
23
0
29 74 12 36 75 23 71 85 52 91 16 37 18 45 33 77 68 11 83 60 
24
0
34 68 16 29 72 26 65 80 48 95 11 45 14 38 25 72 69 9 83 55 
25
0
27 71 19 35 69 29 63 79 49 89 17 40 19 41 33 73 67 4 89 62 
26
0
29 69 17 34 71 23 64 84 49 88 12 43 23 47 33 80 69 6 90 56 
27
0
35 71 18 34 69 22 63 79 50 93 9 44 21 46 27 73 60 5 83 54 
28
0
33 69 16 34 74 33 72 81 50 92 15 44 20 45 26 75 59 10 82 63 
29
0
32 73 13 35 71 31 65 87 47 88 14 40 18 44 30 71 68 6 86 59 
30
0
28 69 19 29 71 29 64 82 45 88 14 46 14 39 29 81 61 10 83 58 
31
0
32 65 19 36 68 28 64 80 50 94 16 45 17 45 35 74 59 8 86 57 
32
0
33 67 14 32 71 27 67 89 50 88 10 45 17 43 34 73 68 10 88 57 
33
0
31 70 16 36 71 26 65 86 48 86 8 40 21 46 29 71 63 10 90 61 
34
0
37 68 17 37 69 26 69 89 49 93 12 45 20 39 33 76 62 5 90 60 
35
0
32 69 12 32 72 27 67 88 55 86 16 41 24 43 34 73 63 12 85 54 
36
0
27 69 13 34 72 28 68 87 56 87 9 42 23 46 35 74 62 12 92 62 
37
0
35 67 20 35 72 29 65 79 52 89 18 41 15 48 26 78 61 4 88 59 
38
0
27 73 19 31 65 28 68 84 51 86 12 47 18 39 32 71 63 5 90 59 
39
0
28 70 19 31 68 32 64 89 51 95 15 45 19 42 31 74 67 5 84 62 
40
0
34 75 19 38 70 29 71 78 47 92 8 40 23 42 30 72 64 10 86 56 
41
0
28 73 21 34 70 29 63 87 55 91 15 46 21 47 28 79 60 12 93 61 
42
0
30 74 12 36 64 33 63 84 50 93 11 45 23 38 26 78 61 6 92 58 
43
0
27 73 17 31 73 30 70 82 54 95 19 43 16 47 32 79 68 6 92 61 
44
0
31 65 15 35 65 25 66 81 50 87 12 45 20 40 27 76 63 7 92 59 
45
0
27 68 11 31 66 32 70 81 50 96 19 39 24 38 35 74 63 5 92 60 
46
0
28 74 15 37 71 25 67 79 55 89 12 42 21 38 32 79 67 9 84 62 
47
0
33 74 12 32 67 23 62 86 46 94 11 38 24 41 34 71 67 10 92 61 
48
0
30 66 18 30 65 31 68 88 50 92 13 41 17 45 29 74 66 7 85 56 
49
0
28 69 15 31 72 33 69 80 55 88 15 47 18 40 35 71 68 13 92 60 
