20
5
2005002
0
0
69 22 46 26 34 
1
0
53 66 29 41 83 
2
0
19 35 55 42 77 
3
0
43 4 95 68 26 
4
0
38 31 5 41 24 
5
0
61 26 34 24 81 
6
0
55 79 87 27 62 
7
0
12 82 56 63 51 
8
0
65 54 3 22 5 
9
0
13 54 74 5 7 
10
0
43 9 56 72 20 
11
0
86 59 15 77 88 
12
0
18 77 22 56 28 
13
0
15 45 76 80 80 
14
0
68 65 1 58 91 
15
0
94 28 27 80 72 
16
0
85 59 33 69 77 
17
0
87 54 65 49 51 
18
0
15 94 7 62 67 
19
0
82 76 60 66 4 
