100
5
10005022
0
0
33 52 41 15 14 
1
0
37 57 48 21 8 
2
0
35 59 51 17 11 
3
0
38 61 44 22 15 
4
0
33 61 42 25 6 
5
0
32 57 48 15 7 
6
0
32 55 41 23 6 
7
0
33 57 47 24 15 
8
0
38 56 43 16 13 
9
0
35 56 45 14 13 
10
0
30 58 46 19 11 
11
0
34 52 49 20 10 
12
0
35 61 43 25 6 
13
0
37 60 45 15 5 
14
0
28 57 50 15 13 
15
0
31 57 50 14 6 
16
0
33 61 50 18 13 
17
0
28 58 49 17 14 
18
0
28 54 46 18 8 
19
0
31 56 42 18 5 
20
0
29 52 41 23 7 
21
0
30 53 40 14 14 
22
0
34 61 41 16 6 
23
0
31 58 48 22 10 
24
0
28 52 45 22 11 
25
0
36 61 47 21 10 
26
0
34 57 43 19 13 
27
0
35 51 42 14 9 
28
0
31 52 45 22 5 
29
0
38 56 48 20 9 
30
0
29 57 40 16 10 
31
0
38 60 40 24 16 
32
0
33 57 46 15 7 
33
0
32 57 42 15 6 
34
0
35 51 42 24 6 
35
0
36 61 48 14 7 
36
0
34 52 42 16 9 
37
0
37 52 41 17 11 
38
0
32 58 50 22 14 
39
0
33 54 48 22 13 
40
0
30 55 42 24 7 
41
0
30 58 45 23 12 
42
0
35 52 49 14 10 
43
0
35 59 41 22 13 
44
0
37 61 42 22 9 
45
0
30 59 40 14 6 
46
0
31 54 51 17 12 
47
0
30 60 44 17 15 
48
0
35 58 44 15 6 
49
0
29 51 50 20 8 
50
0
36 62 46 24 9 
51
0
32 53 49 16 6 
52
0
38 51 51 17 13 
53
0
28 59 49 17 7 
54
0
30 61 47 16 13 
55
0
29 51 47 21 7 
56
0
37 52 43 20 13 
57
0
28 62 43 22 11 
58
0
32 54 43 18 13 
59
0
28 58 49 24 13 
60
0
35 60 46 22 10 
61
0
32 52 44 21 9 
62
0
34 54 41 16 13 
63
0
28 53 48 20 15 
64
0
34 51 45 20 10 
65
0
35 57 41 15 11 
66
0
34 52 40 14 8 
67
0
29 61 45 22 7 
68
0
29 52 42 23 9 
69
0
33 56 48 24 6 
70
0
35 53 44 18 15 
71
0
33 52 49 23 13 
72
0
34 57 49 22 6 
73
0
31 51 47 17 10 
74
0
35 56 46 15 5 
75
0
29 53 48 14 12 
76
0
31 58 49 23 7 
77
0
38 55 49 16 13 
78
0
32 59 41 15 9 
79
0
31 52 48 18 9 
80
0
31 55 49 24 15 
81
0
35 60 41 21 10 
82
0
32 52 46 15 5 
83
0
35 60 47 16 10 
84
0
36 57 44 20 6 
85
0
33 56 44 16 6 
86
0
28 52 51 17 15 
87
0
28 57 42 17 5 
88
0
33 61 50 19 6 
89
0
37 58 45 22 8 
90
0
35 57 41 23 14 
91
0
31 58 41 14 14 
92
0
35 53 42 18 9 
93
0
32 53 44 16 14 
94
0
29 54 50 18 12 
95
0
29 58 44 23 15 
96
0
33 57 45 21 16 
97
0
30 56 47 23 15 
98
0
30 53 44 15 11 
99
0
29 62 48 21 9 
