50
20
1923497586
0
3320
1 92 95 70 17 78 6 31 24 79 3 59 53 86 71 77 55 69 20 38 
1
2030
96 74 75 18 74 27 73 38 83 28 65 42 7 28 54 33 56 34 35 32 
2
3233
21 20 24 19 87 15 64 36 59 43 73 18 27 67 48 22 21 9 25 13 
3
1227
57 70 3 76 39 55 30 35 58 20 81 51 44 29 16 77 77 7 81 10 
4
2771
7 43 83 7 14 28 30 52 60 16 38 95 36 53 22 90 83 43 19 23 
5
2647
34 6 67 34 28 28 99 13 15 9 71 82 21 24 14 23 43 62 4 28 
6
2414
72 77 88 66 12 26 61 78 15 80 3 96 53 95 39 10 11 29 42 42 
7
3269
12 25 75 72 49 98 26 31 27 36 40 45 38 66 99 44 64 70 58 68 
8
2992
80 68 28 16 88 98 38 8 47 14 6 25 37 32 68 1 59 28 18 78 
9
3323
99 83 65 95 91 77 46 62 25 86 98 80 90 66 32 53 37 62 19 39 
10
1870
28 28 54 80 53 79 76 36 43 70 4 42 34 61 20 58 96 34 73 76 
11
3062
80 13 65 10 40 12 65 98 11 87 23 66 1 18 7 40 27 67 14 4 
12
2442
30 74 34 63 1 96 51 7 20 77 23 41 83 99 26 48 9 16 44 45 
13
2610
15 18 17 14 55 78 39 3 36 44 2 1 64 48 2 94 63 83 13 25 
14
3083
95 71 51 89 39 29 23 5 3 52 66 14 69 31 58 20 82 64 11 23 
15
1428
19 11 98 65 35 28 71 82 42 86 67 66 30 66 92 34 31 32 55 77 
16
1248
12 17 94 43 99 14 63 41 51 12 8 89 18 15 86 16 27 43 91 3 
17
1914
59 27 22 44 17 52 94 2 11 49 76 35 74 93 45 99 67 67 51 20 
18
3041
66 89 57 28 69 27 62 63 86 68 58 2 9 64 19 27 82 37 42 49 
19
1116
51 14 37 39 67 51 87 56 55 56 82 63 70 77 90 80 65 79 47 35 
20
2193
6 13 90 59 13 46 43 85 20 59 63 80 41 67 54 24 74 31 94 29 
21
2687
36 40 38 91 98 98 45 85 3 87 18 34 5 74 51 19 41 41 43 59 
22
1627
74 97 20 70 79 97 46 25 64 82 17 45 70 90 88 34 10 3 68 14 
23
3048
53 70 85 24 20 38 9 98 19 5 5 42 5 44 72 6 36 11 77 94 
24
1550
25 96 49 96 57 78 10 58 49 23 75 81 4 51 44 65 69 71 42 11 
25
2367
68 13 37 1 68 89 42 16 70 6 52 27 65 17 85 11 1 21 75 17 
26
1460
37 66 29 92 17 67 43 99 28 15 95 15 53 50 20 14 21 26 17 80 
27
1261
42 77 84 79 27 91 46 61 53 42 55 42 17 80 5 97 72 98 85 70 
28
2455
68 2 93 57 25 51 7 21 96 63 62 80 6 44 10 14 37 39 54 20 
29
2361
74 41 99 88 36 62 15 26 52 66 84 11 98 63 98 77 54 73 83 25 
30
1803
93 69 44 60 67 79 32 67 44 59 5 4 84 19 44 58 88 59 30 12 
31
2532
39 34 39 70 73 93 80 96 24 98 33 84 39 24 6 86 65 33 52 78 
32
2015
75 10 18 38 34 25 4 70 40 67 72 25 3 24 44 72 97 71 89 58 
33
3250
54 91 40 94 47 61 73 89 66 73 52 45 9 35 12 20 71 49 54 13 
34
1855
10 98 24 94 65 59 42 5 2 94 8 42 50 79 55 22 13 22 74 22 
35
1281
60 60 98 30 79 20 98 45 89 27 74 61 58 62 14 2 90 6 86 53 
36
1657
15 3 61 50 31 92 24 38 70 56 70 4 87 11 66 28 88 68 27 92 
37
1026
75 86 72 17 54 1 25 79 69 96 5 34 54 59 28 16 39 14 22 7 
38
2947
71 55 21 43 56 35 13 73 3 81 38 54 41 14 80 54 46 36 24 62 
39
1217
22 95 76 28 33 97 38 99 77 92 7 46 87 89 64 19 89 17 11 94 
40
1078
10 73 87 33 66 79 3 33 96 68 86 80 9 16 13 77 99 30 12 8 
41
3078
65 65 32 48 30 37 69 1 40 92 41 1 49 96 73 7 82 83 8 81 
42
2579
39 24 8 48 89 72 38 84 66 77 99 94 93 72 44 27 14 94 15 5 
43
1771
99 22 17 81 45 76 61 79 75 94 98 8 70 95 11 19 14 53 21 24 
44
1024
77 5 54 50 44 89 8 44 81 93 2 56 4 92 89 80 63 30 75 98 
45
1739
39 67 43 86 91 7 54 39 52 28 51 52 13 34 78 80 67 74 84 85 
46
2006
50 39 3 23 18 79 90 16 78 75 13 13 60 64 6 40 16 24 29 75 
47
1355
14 58 65 95 67 85 3 50 86 74 96 39 41 83 10 49 46 47 15 57 
48
3302
75 4 33 3 94 40 5 39 44 34 78 62 48 66 44 46 28 76 26 37 
49
1508
28 30 36 80 41 24 25 55 85 80 49 84 75 6 28 85 91 28 83 96 
7
1
1
1
10
1
1
9
5
7
9
7
2
1
1
4
3
9
3
7
5
10
2
8
10
3
8
9
10
1
7
4
8
3
9
10
5
1
4
1
1
2
7
2
8
10
1
8
9
3
